…
```r
query_tbl %>%
    count(channelGrouping, traffic_source, sort = TRUE)
```

```
## # A tibble: 287 x 3
##    channelGrouping traffic_source            n
##    <chr>           <chr>                 <int>
##  1 Organic Search  google               212125
##  2 Social          youtube.com          209881
##  3 Organic Search  (direct)             137501
##  4 Direct          (direct)             131037
##  5 Referral        (direct)              61801
##  6 Affiliates      Partners              15062
##  7 Referral        analytics.google.com  14328
##  8 Paid Search     google                11592
##  9 Paid Search     (direct)              10913
## 10 Display         dfa                    4935
## # ... with 277 more rows
```
…
```r
query_tbl %>% count(traffic_source, sort = TRUE)
```

```
## # A tibble: 275 x 2
##    traffic_source            n
##    <chr>                 <int>
##  1 (direct)             341327
##  2 google               224182
##  3 youtube.com          209881
##  4 Partners              15069
##  5 analytics.google.com  14328
##  6 dfa                    4935
##  7 google.com             4443
##  8 baidu                  3287
##  9 m.facebook.com         3275
## 10 sites.google.com       2735
## # ... with 265 more rows
```
…
    # Binary Conversion (Yes/No)
    mutate(total_transactions = ifelse(total_transactions > 0, 1, 0))

visitor_date_channelgrouping_tbl <- as_tibble(visitor_date_channelgrouping_dtplyr)
visitor_date_channelgrouping_tbl
```

```
## # A tibble: 847,224 x 5
##    fullVisitorId date       channel_source total_transacti~
##    <chr>         <date>     <chr>                     <dbl>
##  1 000722514342~ 2016-08-01 Direct-(direc~                0
##  2 001465993518~ 2016-08-01 Social-youtube                0
##  3 001569443280~ 2016-08-01 Direct-(direc~                0
##  4 001747219368~ 2016-08-01 Organic Searc~                0
##  5 001852659575~ 2016-08-01 Social-youtube                0
##  6 001998304603~ 2016-08-01 Direct-(direc~                0
##  7 002597793543~ 2016-08-01 Social-youtube                0
##  8 002855959112~ 2016-08-01 Direct-(direc~                0
##  9 003065339361~ 2016-08-01 Social-youtube                0
## 10 003651776577~ 2016-08-01 Social-youtube                0
## # ... with 847,214 more rows, and 1 more variable:
## #   total_transaction_revenue <dbl>
```
…
channel_path_tbl <- channel_path_dtplyr %>% as_tibble()

# Longest Channel Path?
channel_path_tbl %>% arrange(desc(n_channel_path))
```

```
## # A tibble: 714,167 x 6
##    fullVisitorId channel_path conversion_total conversion_null
##    <chr>         <chr>                   <dbl>           <int>
##  1 195745897629~ Organic Sea~               14             132
##  2 360847519334~ Paid Search~                1             130
##  3 072031119776~ Social-othe~                0             119
##  4 082483972611~ Organic Sea~                0             117
##  5 403807668303~ Organic Sea~                0             110
##  6 185674914791~ Organic Sea~                0             104
##  7 326983486538~ Direct-(dir~                1              87
##  8 601877531773~ Direct-(dir~                0              83
##  9 980127621496~ Organic Sea~                0              83
## 10 369423402852~ Direct-(dir~                1              73
## # ... with 714,157 more rows, and 2 more variables:
## #   conversion_value <dbl>, n_channel_path <int>
```

```r
# Most Path Conversions?
channel_path_tbl %>% arrange(desc(conversion_total))
```

```
## # A tibble: 714,167 x 6
##    fullVisitorId channel_path conversion_total conversion_null
##    <chr>         <chr>                   <dbl>           <int>
##  1 781314996140~ Direct-(dir~               28              22
##  2 498436650112~ Direct-(dir~               16               5
##  3 240252719973~ Direct-(dir~               15              13
##  4 195745897629~ Organic Sea~               14             132
##  5 676073240225~ Referral-(d~               14              15
##  6 060891519773~ Referral-(d~               13               2
##  7 731124288608~ Direct-(dir~               12              10
##  8 207416433864~ Direct-(dir~               11               8
##  9 819787964379~ Organic Sea~               10              27
## 10 908913239224~ Direct-(dir~               10               9
## # ... with 714,157 more rows, and 2 more variables:
## #   conversion_value <dbl>, n_channel_path <int>
```
…
